<svg xmlns="http://www.w3.org/2000/svg" width="28" height="28" viewBox="0 0 28 28">
    <defs>
        <style>
            .prefix__cls-2{fill:#fff}
        </style>
    </defs>
    <g id="prefix__Group_275" data-name="Group 275" transform="translate(-27 -212)">
        <path id="prefix__Rectangle_16" d="M0 0H28V28H0z" data-name="Rectangle 16" transform="translate(27 212)" style="fill:transparent"/>
        <g id="prefix__odnoklassniki" transform="translate(32.5 219)">
            <path id="prefix__Path_90" d="M4.629 12.548c-.358.7.048 1.039.975 1.613a6.422 6.422 0 0 0 2.574.736l-2.754 2.648c-.8.768.489 2 1.29 1.249L8.882 16.7c.83.8 1.626 1.564 2.168 2.094.8.755 2.091-.467 1.3-1.249L9.586 14.9a6.44 6.44 0 0 0 2.557-.736c.926-.577 1.332-.912.98-1.615-.213-.4-.787-.733-1.551-.156a4.725 4.725 0 0 1-2.7.79 4.722 4.722 0 0 1-2.7-.79c-.764-.58-1.34-.243-1.55.156z" class="prefix__cls-2" data-name="Path 90" transform="translate(0 -5.034)"/>
            <path id="prefix__Path_91" d="M9.366 7.083a3.619 3.619 0 0 0 3.685-3.537A3.621 3.621 0 0 0 9.366 0 3.621 3.621 0 0 0 5.68 3.545a3.619 3.619 0 0 0 3.686 3.538zm0-5.287a1.782 1.782 0 0 1 1.81 1.749 1.811 1.811 0 0 1-3.62 0A1.781 1.781 0 0 1 9.366 1.8z" class="prefix__cls-2" data-name="Path 91" transform="translate(-.492)"/>
        </g>
    </g>
</svg>
